{
    "m_SGVersion": 3,
    "m_Type": "UnityEditor.ShaderGraph.GraphData",
    "m_ObjectId": "76a067eb15b14f4f949de029d2f0d4c1",
    "m_Properties": [
        {
            "m_Id": "5ca56637719346bbbdb532a5285f9541"
        }
    ],
    "m_Keywords": [],
    "m_Dropdowns": [],
    "m_CategoryData": [
        {
            "m_Id": "acbeabd005384e7cb51bfe141946f94c"
        }
    ],
    "m_Nodes": [
        {
            "m_Id": "ed7d7a752e294024adc4583bfe0c49ea"
        },
        {
            "m_Id": "131947b738a04c2cae10468045a61472"
        },
        {
            "m_Id": "5f06e334385540cd99fcdc8df2432b21"
        },
        {
            "m_Id": "3170b0e4478a4bdd8358650bf1c9137f"
        }
    ],
    "m_GroupDatas": [],
    "m_StickyNoteDatas": [],
    "m_Edges": [
        {
            "m_OutputSlot": {
                "m_Node": {
                    "m_Id": "3170b0e4478a4bdd8358650bf1c9137f"
                },
                "m_SlotId": 0
            },
            "m_InputSlot": {
                "m_Node": {
                    "m_Id": "131947b738a04c2cae10468045a61472"
                },
                "m_SlotId": 0
            }
        }
    ],
    "m_VertexContext": {
        "m_Position": {
            "x": 0.0,
            "y": 0.0
        },
        "m_Blocks": []
    },
    "m_FragmentContext": {
        "m_Position": {
            "x": 0.0,
            "y": 200.0
        },
        "m_Blocks": [
            {
                "m_Id": "ed7d7a752e294024adc4583bfe0c49ea"
            },
            {
                "m_Id": "131947b738a04c2cae10468045a61472"
            }
        ]
    },
    "m_PreviewData": {
        "serializedMesh": {
            "m_SerializedMesh": "{\"mesh\":{\"instanceID\":0}}",
            "m_Guid": ""
        },
        "preventRotation": false
    },
    "m_Path": "Shader Graphs",
    "m_GraphPrecision": 1,
    "m_PreviewMode": 2,
    "m_OutputNode": {
        "m_Id": ""
    },
    "m_SubDatas": [],
    "m_ActiveTargets": [
        {
            "m_Id": "144a2929011a4fc6962e2396598287db"
        }
    ]
}

{
    "m_SGVersion": 0,
    "m_Type": "UnityEditor.ShaderGraph.Vector1MaterialSlot",
    "m_ObjectId": "05611dd8b2ee45659954c1dba0a98c55",
    "m_Id": 0,
    "m_DisplayName": "Opacity",
    "m_SlotType": 1,
    "m_Hidden": false,
    "m_ShaderOutputName": "Out",
    "m_StageCapability": 3,
    "m_Value": 0.0,
    "m_DefaultValue": 0.0,
    "m_Labels": []
}

{
    "m_SGVersion": 0,
    "m_Type": "UnityEditor.ShaderGraph.BlockNode",
    "m_ObjectId": "131947b738a04c2cae10468045a61472",
    "m_Group": {
        "m_Id": ""
    },
    "m_Name": "SurfaceDescription.Alpha",
    "m_DrawState": {
        "m_Expanded": true,
        "m_Position": {
            "serializedVersion": "2",
            "x": 0.0,
            "y": 0.0,
            "width": 0.0,
            "height": 0.0
        }
    },
    "m_Slots": [
        {
            "m_Id": "a722aa1e3a53499e89f1fb81930d02dd"
        }
    ],
    "synonyms": [],
    "m_Precision": 0,
    "m_PreviewExpanded": true,
    "m_DismissedVersion": 0,
    "m_PreviewMode": 0,
    "m_CustomColors": {
        "m_SerializableColors": []
    },
    "m_SerializedDescriptor": "SurfaceDescription.Alpha"
}

{
    "m_SGVersion": 1,
    "m_Type": "UnityEditor.Rendering.Universal.ShaderGraph.UniversalTarget",
    "m_ObjectId": "144a2929011a4fc6962e2396598287db",
    "m_Datas": [
        {
            "m_Id": "1a93312f02564a88b149f41b835c348e"
        }
    ],
    "m_ActiveSubTarget": {
        "m_Id": "4b9411f38f6c44fc85ddb73cf158a623"
    },
    "m_AllowMaterialOverride": false,
    "m_SurfaceType": 0,
    "m_ZTestMode": 4,
    "m_ZWriteControl": 0,
    "m_AlphaMode": 0,
    "m_RenderFace": 2,
    "m_AlphaClip": false,
    "m_CastShadows": true,
    "m_ReceiveShadows": true,
    "m_SupportsLODCrossFade": false,
    "m_CustomEditorGUI": "",
    "m_SupportVFX": false
}

{
    "m_SGVersion": 0,
    "m_Type": "UnityEditor.Rendering.Fullscreen.ShaderGraph.FullscreenData",
    "m_ObjectId": "1a93312f02564a88b149f41b835c348e",
    "m_Version": 0,
    "m_fullscreenMode": 0,
    "m_BlendMode": 0,
    "m_SrcColorBlendMode": 0,
    "m_DstColorBlendMode": 1,
    "m_ColorBlendOperation": 0,
    "m_SrcAlphaBlendMode": 0,
    "m_DstAlphaBlendMode": 1,
    "m_AlphaBlendOperation": 0,
    "m_EnableStencil": false,
    "m_StencilReference": 0,
    "m_StencilReadMask": 255,
    "m_StencilWriteMask": 255,
    "m_StencilCompareFunction": 8,
    "m_StencilPassOperation": 0,
    "m_StencilFailOperation": 0,
    "m_StencilDepthFailOperation": 0,
    "m_DepthWrite": false,
    "m_depthWriteMode": 0,
    "m_AllowMaterialOverride": true,
    "m_DepthTestMode": 0
}

{
    "m_SGVersion": 0,
    "m_Type": "UnityEditor.ShaderGraph.Vector1MaterialSlot",
    "m_ObjectId": "1c177f4e0a92411da1b61c030ea7e6ab",
    "m_Id": 1,
    "m_DisplayName": "Height",
    "m_SlotType": 1,
    "m_Hidden": false,
    "m_ShaderOutputName": "Height",
    "m_StageCapability": 3,
    "m_Value": 0.0,
    "m_DefaultValue": 0.0,
    "m_Labels": []
}

{
    "m_SGVersion": 0,
    "m_Type": "UnityEditor.ShaderGraph.PropertyNode",
    "m_ObjectId": "3170b0e4478a4bdd8358650bf1c9137f",
    "m_Group": {
        "m_Id": ""
    },
    "m_Name": "Property",
    "m_DrawState": {
        "m_Expanded": true,
        "m_Position": {
            "serializedVersion": "2",
            "x": -305.0,
            "y": 275.0,
            "width": 116.0,
            "height": 34.0
        }
    },
    "m_Slots": [
        {
            "m_Id": "05611dd8b2ee45659954c1dba0a98c55"
        }
    ],
    "synonyms": [],
    "m_Precision": 0,
    "m_PreviewExpanded": true,
    "m_DismissedVersion": 0,
    "m_PreviewMode": 0,
    "m_CustomColors": {
        "m_SerializableColors": []
    },
    "m_Property": {
        "m_Id": "5ca56637719346bbbdb532a5285f9541"
    }
}

{
    "m_SGVersion": 0,
    "m_Type": "UnityEditor.Rendering.Universal.ShaderGraph.UniversalFullscreenSubTarget",
    "m_ObjectId": "4b9411f38f6c44fc85ddb73cf158a623"
}

{
    "m_SGVersion": 1,
    "m_Type": "UnityEditor.ShaderGraph.Internal.Vector1ShaderProperty",
    "m_ObjectId": "5ca56637719346bbbdb532a5285f9541",
    "m_Guid": {
        "m_GuidSerialized": "ed9ba31c-19ec-4144-86ae-5c738e193a43"
    },
    "m_Name": "Opacity",
    "m_DefaultRefNameVersion": 1,
    "m_RefNameGeneratedByDisplayName": "Opacity",
    "m_DefaultReferenceName": "_Opacity",
    "m_OverrideReferenceName": "",
    "m_GeneratePropertyBlock": true,
    "m_UseCustomSlotLabel": false,
    "m_CustomSlotLabel": "",
    "m_DismissedVersion": 0,
    "m_Precision": 0,
    "overrideHLSLDeclaration": false,
    "hlslDeclarationOverride": 0,
    "m_Hidden": false,
    "m_Value": 0.0,
    "m_FloatType": 1,
    "m_RangeValues": {
        "x": 0.0,
        "y": 1.0
    }
}

{
    "m_SGVersion": 0,
    "m_Type": "UnityEditor.ShaderGraph.ScreenNode",
    "m_ObjectId": "5f06e334385540cd99fcdc8df2432b21",
    "m_Group": {
        "m_Id": ""
    },
    "m_Name": "Screen",
    "m_DrawState": {
        "m_Expanded": true,
        "m_Position": {
            "serializedVersion": "2",
            "x": -826.0,
            "y": -145.0,
            "width": 88.0,
            "height": 101.0
        }
    },
    "m_Slots": [
        {
            "m_Id": "69c54ceca3304038859948c5af2b8c0f"
        },
        {
            "m_Id": "1c177f4e0a92411da1b61c030ea7e6ab"
        }
    ],
    "synonyms": [],
    "m_Precision": 0,
    "m_PreviewExpanded": true,
    "m_DismissedVersion": 0,
    "m_PreviewMode": 0,
    "m_CustomColors": {
        "m_SerializableColors": []
    }
}

{
    "m_SGVersion": 0,
    "m_Type": "UnityEditor.ShaderGraph.Vector1MaterialSlot",
    "m_ObjectId": "69c54ceca3304038859948c5af2b8c0f",
    "m_Id": 0,
    "m_DisplayName": "Width",
    "m_SlotType": 1,
    "m_Hidden": false,
    "m_ShaderOutputName": "Width",
    "m_StageCapability": 3,
    "m_Value": 0.0,
    "m_DefaultValue": 0.0,
    "m_Labels": []
}

{
    "m_SGVersion": 0,
    "m_Type": "UnityEditor.ShaderGraph.Vector1MaterialSlot",
    "m_ObjectId": "a722aa1e3a53499e89f1fb81930d02dd",
    "m_Id": 0,
    "m_DisplayName": "Alpha",
    "m_SlotType": 0,
    "m_Hidden": false,
    "m_ShaderOutputName": "Alpha",
    "m_StageCapability": 2,
    "m_Value": 1.0,
    "m_DefaultValue": 1.0,
    "m_Labels": []
}

{
    "m_SGVersion": 0,
    "m_Type": "UnityEditor.ShaderGraph.CategoryData",
    "m_ObjectId": "acbeabd005384e7cb51bfe141946f94c",
    "m_Name": "",
    "m_ChildObjectList": [
        {
            "m_Id": "5ca56637719346bbbdb532a5285f9541"
        }
    ]
}

{
    "m_SGVersion": 0,
    "m_Type": "UnityEditor.ShaderGraph.ColorRGBMaterialSlot",
    "m_ObjectId": "af68bbe8886948b285427b3b34ea537a",
    "m_Id": 0,
    "m_DisplayName": "Base Color",
    "m_SlotType": 0,
    "m_Hidden": false,
    "m_ShaderOutputName": "BaseColor",
    "m_StageCapability": 2,
    "m_Value": {
        "x": 0.0,
        "y": 0.0,
        "z": 0.0
    },
    "m_DefaultValue": {
        "x": 0.0,
        "y": 0.0,
        "z": 0.0
    },
    "m_Labels": [],
    "m_ColorMode": 0,
    "m_DefaultColor": {
        "r": 0.5,
        "g": 0.5,
        "b": 0.5,
        "a": 1.0
    }
}

{
    "m_SGVersion": 0,
    "m_Type": "UnityEditor.ShaderGraph.BlockNode",
    "m_ObjectId": "ed7d7a752e294024adc4583bfe0c49ea",
    "m_Group": {
        "m_Id": ""
    },
    "m_Name": "SurfaceDescription.BaseColor",
    "m_DrawState": {
        "m_Expanded": true,
        "m_Position": {
            "serializedVersion": "2",
            "x": 0.0,
            "y": 0.0,
            "width": 0.0,
            "height": 0.0
        }
    },
    "m_Slots": [
        {
            "m_Id": "af68bbe8886948b285427b3b34ea537a"
        }
    ],
    "synonyms": [],
    "m_Precision": 0,
    "m_PreviewExpanded": true,
    "m_DismissedVersion": 0,
    "m_PreviewMode": 0,
    "m_CustomColors": {
        "m_SerializableColors": []
    },
    "m_SerializedDescriptor": "SurfaceDescription.BaseColor"
}

